{
  "defaultSeverity": "error",
  "extends": ["tslint:recommended", "tslint-react", "tslint-config-airbnb", "tslint-config-prettier"],
  "jsRules": {
    "no-unused-expression": true
  },
  "rules": {
    "indent": [true, "spaces", 2],
    "semicolon": [true, "always", "strict-bound-class-methods"],
    "arrow-parens": [false],
    "no-console": [false],
    "no-shadowed-variable": false,
    "quotemark": [true, "single", "avoid-escape"],
    "member-access": [false],
    "ordered-imports": [false],
    "max-line-length": [true, 149],
    "member-ordering": [false],
    "interface-name": [false],
    "object-literal-sort-keys": false,
    "whitespace": [ false ],
    "no-empty-interface": false,
    "variable-name": [false]
  },
  "rulesDirectory": []
}